<?xml version="1.0" encoding="UTF-8" standalone="no"?>
<svg
   xmlns:dc="http://purl.org/dc/elements/1.1/"
   xmlns:cc="http://creativecommons.org/ns#"
   xmlns:rdf="http://www.w3.org/1999/02/22-rdf-syntax-ns#"
   xmlns:svg="http://www.w3.org/2000/svg"
   xmlns="http://www.w3.org/2000/svg"
   xmlns:xlink="http://www.w3.org/1999/xlink"
   xmlns:sodipodi="http://sodipodi.sourceforge.net/DTD/sodipodi-0.dtd"
   xmlns:inkscape="http://www.inkscape.org/namespaces/inkscape"
   width="500.00003pt"
   height="500.00003pt"
   viewBox="0 0 500.00003 500.00003"
   version="1.2"
   id="svg21"
   sodipodi:docname="dodona.svg"
   inkscape:version="0.92.3 (2405546, 2018-03-11)">
  <metadata
     id="metadata25">
    <rdf:RDF>
      <cc:Work
         rdf:about="">
        <dc:format>image/svg+xml</dc:format>
        <dc:type
           rdf:resource="http://purl.org/dc/dcmitype/StillImage" />
        <dc:title></dc:title>
      </cc:Work>
    </rdf:RDF>
  </metadata>
  <sodipodi:namedview
     pagecolor="#ffffff"
     bordercolor="#666666"
     borderopacity="1"
     objecttolerance="10"
     gridtolerance="10"
     guidetolerance="10"
     inkscape:pageopacity="0"
     inkscape:pageshadow="2"
     inkscape:window-width="1920"
     inkscape:window-height="1020"
     id="namedview23"
     showgrid="false"
     fit-margin-top="0"
     fit-margin-left="0"
     fit-margin-right="0"
     fit-margin-bottom="0"
     inkscape:zoom="0.5006316"
     inkscape:cx="880.75927"
     inkscape:cy="63.606533"
     inkscape:window-x="0"
     inkscape:window-y="35"
     inkscape:window-maximized="1"
     inkscape:current-layer="surface942" />
  <defs
     id="defs10">
    <g
       id="g8">
      <symbol
         overflow="visible"
         id="glyph0-0"
         style="overflow:visible">
        <path
           style="stroke:none"
           d="M 20.3125,70.703125 V -282.03125 h 200 V 70.703125 Z M 42.78125,48.4375 H 198.04687 V -259.57812 H 42.78125 Z m 0,0"
           id="path2"
           inkscape:connector-curvature="0" />
      </symbol>
      <symbol
         overflow="visible"
         id="glyph0-1"
         style="overflow:visible">
        <path
           style="stroke:none"
           d="M 84.375,-239.65625 V -51.953125 H 100 c 22.65625,0 38.80078,-7.128906 48.4375,-21.390625 9.63281,-14.257812 14.45312,-38.50781 14.45312,-72.75 0,-33.98828 -4.82031,-58.07812 -14.45312,-72.26562 -9.63672,-14.19532 -25.78125,-21.29688 -48.4375,-21.29688 z m -57.609375,-51.95312 h 61.71875 c 47.656245,0 81.960935,11.36718 102.921875,34.09375 20.96875,22.71875 31.45312,59.85937 31.45312,111.42187 0,51.6875 -10.48437,88.960938 -31.45312,111.8125 C 170.44531,-11.425781 136.14062,0 88.484375,0 h -61.71875 z m 0,0"
           id="path5"
           inkscape:connector-curvature="0" />
      </symbol>
    </g>
  </defs>
  <g
     id="surface942">
    <rect
       x="0"
       y="0"
       width="500"
       height="500"
       style="fill:#1e94f3;fill-opacity:1;stroke:none"
       id="rect12" />
    <g
       style="fill:#ffffff;fill-opacity:1"
       id="g18">
      <use
         xlink:href="#glyph0-1"
         x="134.1665"
         y="386.4595"
         id="use16"
         width="100%"
         height="100%" />
    </g>
  </g>
</svg>
