<svg width="40" height="40" xmlns="http://www.w3.org/2000/svg">
	<defs>
		<linearGradient y2="0" x2="1" y1="0" x1="0" id="circle_bg_gradient">
			<stop offset="0" stop-color="#fe5196" />
			<stop offset="1" stop-color="#f77062" />
		</linearGradient>
	</defs>
	<g>
		<circle
				id="svg_1"
				r="16"
				cy="20"
				cx="20"
				stroke="#000"
				stroke-width="2"
				fill="url(#circle_bg_gradient)"
				fill-opacity="100"
		/>
	</g>
</svg>
