<?xml version="1.0" encoding="utf-8"?>
<!-- Generator: Adobe Illustrator 23.0.2, SVG Export Plug-In . SVG Version: 6.00 Build 0)  -->
<svg version="1.1" id="Layer_1" xmlns="http://www.w3.org/2000/svg" xmlns:xlink="http://www.w3.org/1999/xlink" x="0px" y="0px"
	 viewBox="0 0 48 48" style="enable-background:new 0 0 48 48;" xml:space="preserve">
<style type="text/css">
	.st0{fill:#EF7C00;}
	.st1{fill:#86BA0C;}
	.st2{fill:#BD1789;}
</style>
<circle class="st0" cx="8.8" cy="20.2" r="5"/>
<circle class="st1" cx="23.8" cy="20.2" r="4"/>
<circle class="st2" cx="39" cy="20.2" r="4"/>
<circle class="st1" cx="23.8" cy="32.8" r="4"/>
<circle class="st2" cx="39" cy="32.6" r="4"/>
</svg>
